[{"type":"directory","name": ".","contents":[
    {"type":"directory","name":"mydir0","time":"Jun 25 15:23","contents":[
      {"type":"directory","name":"mydir0","time":"Jun 25 15:23","contents":[
        {"type":"file","name":"leaf","time":"Jun 25 15:23"}
      ]},
      {"type":"file","name":"tree.json","time":"Jun 25 15:23"}
    ]},
    {"type":"directory","name":"mydir1","time":"Jun 25 15:23","contents":[
      {"type":"directory","name":"mydir0","time":"Jun 25 15:23","contents":[
        {"type":"directory","name":"mydir0","time":"Jun 25 15:23","contents":[
          {"type":"directory","name":"mydir0","time":"Jun 25 15:23","contents":[
            {"type":"file","name":"leaf","time":"Jun 25 15:23"}
          ]},
          {"type":"directory","name":"mydir1","time":"Jun 25 15:23","contents":[
            {"type":"file","name":"leaf","time":"Jun 25 15:23"}
          ]},
          {"type":"file","name":"tree.json","time":"Jun 25 15:23"}
        ]},
        {"type":"file","name":"tree.json","time":"Jun 25 15:23"}
      ]},
      {"type":"directory","name":"mydir1","time":"Jun 25 15:23","contents":[
        {"type":"file","name":"leaf","time":"Jun 25 15:23"}
      ]},
      {"type":"file","name":"tree.json","time":"Jun 25 15:23"}
    ]},
    {"type":"file","name":"tree.json","time":"Jun 25 15:23"}
  ]},
  {"type":"report","directories":8,"files":9}
]
